R Tutorial
…
print(gapminder)

## # A tibble: 1,704 x 6
##    country     continent  year lifeExp      pop gdpPercap
##    <fct>       <fct>     <int>   <dbl>    <int>     <dbl>
##  1 Afghanistan Asia       1952    28.8  8425333      779.
##  2 Afghanistan Asia       1957    30.3  9240934      821.
##  3 Afghanistan Asia       1962    32.0 10267083      853.
##  4 Afghanistan Asia       1967    34.0 11537966      836.
##  5 Afghanistan Asia       1972    36.1 13079460      740.
##  6 Afghanistan Asia       1977    38.4 14880372      786.
##  7 Afghanistan Asia       1982    39.9 12881816      978.
##  8 Afghanistan Asia       1987    40.8 13867957      852.
##  9 Afghanistan Asia       1992    41.7 16317921      649.
## 10 Afghanistan Asia       1997    41.8 22227415      635.
## # ... with 1,694 more rows
…
选择中国以外所有国家的观测值

filter(gapminder, country != "China")

## # A tibble: 1,692 x 6
##    country     continent  year lifeExp      pop gdpPercap
##    <fct>       <fct>     <int>   <dbl>    <int>     <dbl>
##  1 Afghanistan Asia       1952    28.8  8425333      779.
##  2 Afghanistan Asia       1957    30.3  9240934      821.
##  3 Afghanistan Asia       1962    32.0 10267083      853.
##  4 Afghanistan Asia       1967    34.0 11537966      836.
##  5 Afghanistan Asia       1972    36.1 13079460      740.
##  6 Afghanistan Asia       1977    38.4 14880372      786.
##  7 Afghanistan Asia       1982    39.9 12881816      978.
##  8 Afghanistan Asia       1987    40.8 13867957      852.
##  9 Afghanistan Asia       1992    41.7 16317921      649.
## 10 Afghanistan Asia       1997    41.8 22227415      635.
## # ... with 1,682 more rows

选择人口大于1亿的国家

filter(gapminder, pop > 1e8)

## # A tibble: 77 x 6
##    country    continent  year lifeExp       pop gdpPercap
##    <fct>      <fct>     <int>   <dbl>     <int>     <dbl>
##  1 Bangladesh Asia       1987    52.8 103764241      752.
##  2 Bangladesh Asia       1992    56.0 113704579      838.
##  3 Bangladesh Asia       1997    59.4 123315288      973.
##  4 Bangladesh Asia       2002    62.0 135656790     1136.
##  5 Bangladesh Asia       2007    64.1 150448339     1391.
##  6 Brazil     Americas   1972    59.5 100840058     4986.
##  7 Brazil     Americas   1977    61.5 114313951     6660.
##  8 Brazil     Americas   1982    63.3 128962939     7031.
##  9 Brazil     Americas   1987    65.2 142938076     7807.
## 10 Brazil     Americas   1992    67.1 155975974     6950.
## # ... with 67 more rows

选择人口大于1亿, 且平均寿命超过70岁的国家

filter(gapminder, (pop > 1e8) & (lifeExp >= 70))

## # A tibble: 27 x 6
##    country   continent  year lifeExp        pop gdpPercap
##    <fct>     <fct>     <int>   <dbl>      <int>     <dbl>
##  1 Brazil    Americas   2002    71.0  179914212     8131.
##  2 Brazil    Americas   2007    72.4  190010647     9066.
##  3 China     Asia       1997    70.4 1230075000     2289.
##  4 China     Asia       2002    72.0 1280400000     3119.
##  5 China     Asia       2007    73.0 1318683096     4959.
##  6 Indonesia Asia       2007    70.6  223547000     3541.
##  7 Japan     Asia       1967    71.4  100825279     9848.
##  8 Japan     Asia       1972    73.4  107188273    14779.
##  9 Japan     Asia       1977    75.4  113872473    16610.
## 10 Japan     Asia       1982    77.1  118454974    19384.
## # ... with 17 more rows

filter(gapminder, pop > 1e8, lifeExp >= 70)

## # A tibble: 27 x 6
##    country   continent  year lifeExp        pop gdpPercap
##    <fct>     <fct>     <int>   <dbl>      <int>     <dbl>
##  1 Brazil    Americas   2002    71.0  179914212     8131.
##  2 Brazil    Americas   2007    72.4  190010647     9066.
##  3 China     Asia       1997    70.4 1230075000     2289.
##  4 China     Asia       2002    72.0 1280400000     3119.
##  5 China     Asia       2007    73.0 1318683096     4959.
##  6 Indonesia Asia       2007    70.6  223547000     3541.
##  7 Japan     Asia       1967    71.4  100825279     9848.
##  8 Japan     Asia       1972    73.4  107188273    14779.
##  9 Japan     Asia       1977    75.4  113872473    16610.
## 10 Japan     Asia       1982    77.1  118454974    19384.
## # ... with 17 more rows

选择人口大于1亿, 或平均寿命超过70岁的国家

filter(gapminder, (pop > 1e8) | (lifeExp >= 70))

## # A tibble: 544 x 6
##    country   continent  year lifeExp      pop gdpPercap
##    <fct>     <fct>     <int>   <dbl>    <int>     <dbl>
##  1 Albania   Europe     1982    70.4  2780097     3631.
##  2 Albania   Europe     1987    72    3075321     3739.
##  3 Albania   Europe     1992    71.6  3326498     2497.
##  4 Albania   Europe     1997    73.0  3428038     3193.
##  5 Albania   Europe     2002    75.7  3508512     4604.
##  6 Albania   Europe     2007    76.4  3600523     5937.
##  7 Algeria   Africa     2002    71.0 31287142     5288.
##  8 Algeria   Africa     2007    72.3 33333216     6223.
##  9 Argentina Americas   1987    70.8 31620918     9140.
## 10 Argentina Americas   1992    71.9 33958947     9308.
## # ... with 534 more rows

4.2.2 arrange: 排序

按照人均GDP顺序排序(从小到大排序)

arrange(gapminder, gdpPercap)

## # A tibble: 1,704 x 6
##    country          continent  year lifeExp      pop gdpPercap
##    <fct>            <fct>     <int>   <dbl>    <int>     <dbl>
##  1 Congo, Dem. Rep. Africa     2002    45.0 55379852      241.
##  2 Congo, Dem. Rep. Africa     2007    46.5 64606759      278.
##  3 Lesotho          Africa     1952    42.1   748747      299.
##  4 Guinea-Bissau    Africa     1952    32.5   580653      300.
##  5 Congo, Dem. Rep. Africa     1997    42.6 47798986      312.
##  6 Eritrea          Africa     1952    35.9  1438760      329.
##  7 Myanmar          Asia       1952    36.3 20092996      331 
##  8 Lesotho          Africa     1957    45.0   813338      336.
##  9 Burundi          Africa     1952    39.0  2445618      339.
## 10 Eritrea          Africa     1957    38.0  1542611      344.
## # ... with 1,694 more rows

按照人均GDP逆序排序(从大到小排序)

arrange(gapminder, desc(gdpPercap))

## # A tibble: 1,704 x 6
##    country   continent  year lifeExp     pop gdpPercap
##    <fct>     <fct>     <int>   <dbl>   <int>     <dbl>
##  1 Kuwait    Asia       1957    58.0  212846   113523.
##  2 Kuwait    Asia       1972    67.7  841934   109348.
##  3 Kuwait    Asia       1952    55.6  160000   108382.
##  4 Kuwait    Asia       1962    60.5  358266    95458.
##  5 Kuwait    Asia       1967    64.6  575003    80895.
##  6 Kuwait    Asia       1977    69.3 1140357    59265.
##  7 Norway    Europe     2007    80.2 4627926    49357.
##  8 Kuwait    Asia       2007    77.6 2505559    47307.
##  9 Singapore Asia       2007    80.0 4553009    47143.
## 10 Norway    Europe     2002    79.0 4535591    44684.
## # ... with 1,694 more rows

4.2.3 select: 选择列

select(gapminder, country, continent, year, lifeExp)

## # A tibble: 1,704 x 4
##    country     continent  year lifeExp
##    <fct>       <fct>     <int>   <dbl>
##  1 Afghanistan Asia       1952    28.8
##  2 Afghanistan Asia       1957    30.3
##  3 Afghanistan Asia       1962    32.0
##  4 Afghanistan Asia       1967    34.0
##  5 Afghanistan Asia       1972    36.1
##  6 Afghanistan Asia       1977    38.4
##  7 Afghanistan Asia       1982    39.9
##  8 Afghanistan Asia       1987    40.8
##  9 Afghanistan Asia       1992    41.7
## 10 Afghanistan Asia       1997    41.8
## # ... with 1,694 more rows

select(gapminder, country:lifeExp)

## # A tibble: 1,704 x 4
##    country     continent  year lifeExp
##    <fct>       <fct>     <int>   <dbl>
##  1 Afghanistan Asia       1952    28.8
##  2 Afghanistan Asia       1957    30.3
##  3 Afghanistan Asia       1962    32.0
##  4 Afghanistan Asia       1967    34.0
##  5 Afghanistan Asia       1972    36.1
##  6 Afghanistan Asia       1977    38.4
##  7 Afghanistan Asia       1982    39.9
##  8 Afghanistan Asia       1987    40.8
##  9 Afghanistan Asia       1992    41.7
## 10 Afghanistan Asia       1997    41.8
## # ... with 1,694 more rows

select(gapminder, 1:4)

## # A tibble: 1,704 x 4
##    country     continent  year lifeExp
##    <fct>       <fct>     <int>   <dbl>
##  1 Afghanistan Asia       1952    28.8
##  2 Afghanistan Asia       1957    30.3
##  3 Afghanistan Asia       1962    32.0
##  4 Afghanistan Asia       1967    34.0
##  5 Afghanistan Asia       1972    36.1
##  6 Afghanistan Asia       1977    38.4
##  7 Afghanistan Asia       1982    39.9
##  8 Afghanistan Asia       1987    40.8
##  9 Afghanistan Asia       1992    41.7
## 10 Afghanistan Asia       1997    41.8
## # ... with 1,694 more rows

select(gapminder, -pop, -gdpPercap)

## # A tibble: 1,704 x 4
##    country     continent  year lifeExp
##    <fct>       <fct>     <int>   <dbl>
##  1 Afghanistan Asia       1952    28.8
##  2 Afghanistan Asia       1957    30.3
##  3 Afghanistan Asia       1962    32.0
##  4 Afghanistan Asia       1967    34.0
##  5 Afghanistan Asia       1972    36.1
##  6 Afghanistan Asia       1977    38.4
##  7 Afghanistan Asia       1982    39.9
##  8 Afghanistan Asia       1987    40.8
##  9 Afghanistan Asia       1992    41.7
## 10 Afghanistan Asia       1997    41.8
## # ... with 1,694 more rows
…
starts_with(), ends_with(), contains()

matches()

num_range()

4.2.4 mutate: 增加新变量

mutate(gapminder,
    GDP = pop * gdpPercap,
    logpop = log(pop)
  )

## # A tibble: 1,704 x 8
##    country     continent  year lifeExp     pop gdpPercap         GDP logpop
##    <fct>       <fct>     <int>   <dbl>   <int>     <dbl>       <dbl>  <dbl>
##  1 Afghanistan Asia       1952    28.8  8.43e6      779.     6.57e 9   15.9
##  2 Afghanistan Asia       1957    30.3  9.24e6      821.     7.59e 9   16.0
##  3 Afghanistan Asia       1962    32.0  1.03e7      853.     8.76e 9   16.1
##  4 Afghanistan Asia       1967    34.0  1.15e7      836.     9.65e 9   16.3
##  5 Afghanistan Asia       1972    36.1  1.31e7      740.     9.68e 9   16.4
##  6 Afghanistan Asia       1977    38.4  1.49e7      786.     1.17e10   16.5
##  7 Afghanistan Asia       1982    39.9  1.29e7      978.     1.26e10   16.4
##  8 Afghanistan Asia       1987    40.8  1.39e7      852.     1.18e10   16.4
##  9 Afghanistan Asia       1992    41.7  1.63e7      649.     1.06e10   16.6
## 10 Afghanistan Asia       1997    41.8  2.22e7      635.     1.41e10   16.9
## # ... with 1,694 more rows
…
Count: n(), n_distinct()

Logical: any(), all()

4.2.7 group_by: 分组

分组后arrange

每年按照人均GDP排序

gapminder %>% 
  group_by(year) %>% 
  arrange(gdpPercap, .by_group = TRUE) # .by_group=T 不可缺少, 否则arrange将无视group_by

## # A tibble: 1,704 x 6
## # Groups:   year [12]
##    country           continent  year lifeExp       pop gdpPercap
##    <fct>             <fct>     <int>   <dbl>     <int>     <dbl>
##  1 Lesotho           Africa     1952    42.1    748747      299.
##  2 Guinea-Bissau     Africa     1952    32.5    580653      300.
##  3 Eritrea           Africa     1952    35.9   1438760      329.
##  4 Myanmar           Asia       1952    36.3  20092996      331 
##  5 Burundi           Africa     1952    39.0   2445618      339.
##  6 Ethiopia          Africa     1952    34.1  20860941      362.
##  7 Cambodia          Asia       1952    39.4   4693836      368.
##  8 Malawi            Africa     1952    36.3   2917802      369.
##  9 Equatorial Guinea Africa     1952    34.5    216964      376.
## 10 China             Asia       1952    44   556263527      400.
## # ... with 1,694 more rows

分组后summarise

计算每个国家的平均寿命与观测值个数

gapminder %>% 
  group_by(country) %>% 
  summarise(avg_lifeExp = mean(lifeExp), n = n())

## # A tibble: 142 x 3
##    country     avg_lifeExp     n
##    <fct>             <dbl> <int>
##  1 Afghanistan        37.5    12
##  2 Albania            68.4    12
##  3 Algeria            59.0    12
##  4 Angola             37.9    12
##  5 Argentina          69.1    12
##  6 Australia          74.7    12
##  7 Austria            73.1    12
##  8 Bahrain            65.6    12
##  9 Bangladesh         49.8    12
## 10 Belgium            73.6    12
## # ... with 132 more rows

分组后filter&mutate

首先筛选观测值超过10个的国家, 然后计算这些国家人均GDP增长率

gapminder %>% 
  group_by(country) %>% 
  filter(n() > 10) %>% 
  mutate(
    gdp_growth = gdpPercap / lag(gdpPercap) - 1
  )

## # A tibble: 1,704 x 7
## # Groups:   country [142]
##    country     continent  year lifeExp      pop gdpPercap gdp_growth
##    <fct>       <fct>     <int>   <dbl>    <int>     <dbl>      <dbl>
##  1 Afghanistan Asia       1952    28.8  8425333      779.    NA     
##  2 Afghanistan Asia       1957    30.3  9240934      821.     0.0531
##  3 Afghanistan Asia       1962    32.0 10267083      853.     0.0393
##  4 Afghanistan Asia       1967    34.0 11537966      836.    -0.0198
##  5 Afghanistan Asia       1972    36.1 13079460      740.    -0.115 
##  6 Afghanistan Asia       1977    38.4 14880372      786.     0.0623
##  7 Afghanistan Asia       1982    39.9 12881816      978.     0.244 
##  8 Afghanistan Asia       1987    40.8 13867957      852.    -0.128 
##  9 Afghanistan Asia       1992    41.7 16317921      649.    -0.238 
## 10 Afghanistan Asia       1997    41.8 22227415      635.    -0.0216
## # ... with 1,694 more rows
…
下面哪个数据集是tidy的?

gapminder

## # A tibble: 1,704 x 6
##    country     continent  year lifeExp      pop gdpPercap
##    <fct>       <fct>     <int>   <dbl>    <int>     <dbl>
##  1 Afghanistan Asia       1952    28.8  8425333      779.
##  2 Afghanistan Asia       1957    30.3  9240934      821.
##  3 Afghanistan Asia       1962    32.0 10267083      853.
##  4 Afghanistan Asia       1967    34.0 11537966      836.
##  5 Afghanistan Asia       1972    36.1 13079460      740.
##  6 Afghanistan Asia       1977    38.4 14880372      786.
##  7 Afghanistan Asia       1982    39.9 12881816      978.
##  8 Afghanistan Asia       1987    40.8 13867957      852.
##  9 Afghanistan Asia       1992    41.7 16317921      649.
## 10 Afghanistan Asia       1997    41.8 22227415      635.
## # ... with 1,694 more rows

gapminder1

## # A tibble: 5,112 x 5
##    country     continent  year type    count
##    <fct>       <fct>     <int> <chr>   <dbl>
##  1 Afghanistan Asia       1952 lifeExp  28.8
##  2 Afghanistan Asia       1957 lifeExp  30.3
##  3 Afghanistan Asia       1962 lifeExp  32.0
##  4 Afghanistan Asia       1967 lifeExp  34.0
##  5 Afghanistan Asia       1972 lifeExp  36.1
##  6 Afghanistan Asia       1977 lifeExp  38.4
##  7 Afghanistan Asia       1982 lifeExp  39.9
##  8 Afghanistan Asia       1987 lifeExp  40.8
##  9 Afghanistan Asia       1992 lifeExp  41.7
## 10 Afghanistan Asia       1997 lifeExp  41.8
## # ... with 5,102 more rows

gapminder2a # lifeExp

## # A tibble: 142 x 14
##    country continent `1952` `1957` `1962` `1967` `1972` `1977` `1982`
##    <fct>   <fct>      <dbl>  <dbl>  <dbl>  <dbl>  <dbl>  <dbl>  <dbl>
##  1 Afghan~ Asia        28.8   30.3   32.0   34.0   36.1   38.4   39.9
##  2 Albania Europe      55.2   59.3   64.8   66.2   67.7   68.9   70.4
##  3 Algeria Africa      43.1   45.7   48.3   51.4   54.5   58.0   61.4
##  4 Angola  Africa      30.0   32.0   34     36.0   37.9   39.5   39.9
##  5 Argent~ Americas    62.5   64.4   65.1   65.6   67.1   68.5   69.9
##  6 Austra~ Oceania     69.1   70.3   70.9   71.1   71.9   73.5   74.7
##  7 Austria Europe      66.8   67.5   69.5   70.1   70.6   72.2   73.2
##  8 Bahrain Asia        50.9   53.8   56.9   59.9   63.3   65.6   69.1
##  9 Bangla~ Asia        37.5   39.3   41.2   43.5   45.3   46.9   50.0
## 10 Belgium Europe      68     69.2   70.2   70.9   71.4   72.8   73.9
## # ... with 132 more rows, and 5 more variables: `1987` <dbl>,
## #   `1992` <dbl>, `1997` <dbl>, `2002` <dbl>, `2007` <dbl>

gapminder2b # pop

## # A tibble: 142 x 14
##    country continent `1952` `1957` `1962` `1967` `1972` `1977` `1982`
##    <fct>   <fct>      <int>  <int>  <int>  <int>  <int>  <int>  <int>
##  1 Afghan~ Asia      8.43e6 9.24e6 1.03e7 1.15e7 1.31e7 1.49e7 1.29e7
##  2 Albania Europe    1.28e6 1.48e6 1.73e6 1.98e6 2.26e6 2.51e6 2.78e6
##  3 Algeria Africa    9.28e6 1.03e7 1.10e7 1.28e7 1.48e7 1.72e7 2.00e7
##  4 Angola  Africa    4.23e6 4.56e6 4.83e6 5.25e6 5.89e6 6.16e6 7.02e6
##  5 Argent~ Americas  1.79e7 1.96e7 2.13e7 2.29e7 2.48e7 2.70e7 2.93e7
##  6 Austra~ Oceania   8.69e6 9.71e6 1.08e7 1.19e7 1.32e7 1.41e7 1.52e7
##  7 Austria Europe    6.93e6 6.97e6 7.13e6 7.38e6 7.54e6 7.57e6 7.57e6
##  8 Bahrain Asia      1.20e5 1.39e5 1.72e5 2.02e5 2.31e5 2.97e5 3.78e5
##  9 Bangla~ Asia      4.69e7 5.14e7 5.68e7 6.28e7 7.08e7 8.04e7 9.31e7
## 10 Belgium Europe    8.73e6 8.99e6 9.22e6 9.56e6 9.71e6 9.82e6 9.86e6
## # ... with 132 more rows, and 5 more variables: `1987` <int>,
## #   `1992` <int>, `1997` <int>, `2002` <int>, `2007` <int>

gapminder2c # gdpPercap

## # A tibble: 142 x 14
##    country continent `1952` `1957` `1962` `1967` `1972` `1977` `1982`
##    <fct>   <fct>      <dbl>  <dbl>  <dbl>  <dbl>  <dbl>  <dbl>  <dbl>
##  1 Afghan~ Asia        779.   821.   853.   836.   740.   786.   978.
##  2 Albania Europe     1601.  1942.  2313.  2760.  3313.  3533.  3631.
##  3 Algeria Africa     2449.  3014.  2551.  3247.  4183.  4910.  5745.
##  4 Angola  Africa     3521.  3828.  4269.  5523.  5473.  3009.  2757.
##  5 Argent~ Americas   5911.  6857.  7133.  8053.  9443. 10079.  8998.
##  6 Austra~ Oceania   10040. 10950. 12217. 14526. 16789. 18334. 19477.
##  7 Austria Europe     6137.  8843. 10751. 12835. 16662. 19749. 21597.
##  8 Bahrain Asia       9867. 11636. 12753. 14805. 18269. 19340. 19211.
##  9 Bangla~ Asia        684.   662.   686.   721.   630.   660.   677.
## 10 Belgium Europe     8343.  9715. 10991. 13149. 16672. 19118. 20980.
## # ... with 132 more rows, and 5 more variables: `1987` <dbl>,
## #   `1992` <dbl>, `1997` <dbl>, `2002` <dbl>, `2007` <dbl>
…
spread(gapminder1, key = type, value = count)

## # A tibble: 1,704 x 6
##    country     continent  year gdpPercap lifeExp      pop
##    <fct>       <fct>     <int>     <dbl>   <dbl>    <dbl>
##  1 Afghanistan Asia       1952      779.    28.8  8425333
##  2 Afghanistan Asia       1957      821.    30.3  9240934
##  3 Afghanistan Asia       1962      853.    32.0 10267083
##  4 Afghanistan Asia       1967      836.    34.0 11537966
##  5 Afghanistan Asia       1972      740.    36.1 13079460
##  6 Afghanistan Asia       1977      786.    38.4 14880372
##  7 Afghanistan Asia       1982      978.    39.9 12881816
##  8 Afghanistan Asia       1987      852.    40.8 13867957
##  9 Afghanistan Asia       1992      649.    41.7 16317921
## 10 Afghanistan Asia       1997      635.    41.8 22227415
## # ... with 1,694 more rows

4.4 合并数据集

4.4.1 纵向合并

bind_rows(gapminder2a, gapminder2b)

## # A tibble: 284 x 14
##    country continent `1952` `1957` `1962` `1967` `1972` `1977` `1982`
##    <fct>   <fct>      <dbl>  <dbl>  <dbl>  <dbl>  <dbl>  <dbl>  <dbl>
##  1 Afghan~ Asia        28.8   30.3   32.0   34.0   36.1   38.4   39.9
##  2 Albania Europe      55.2   59.3   64.8   66.2   67.7   68.9   70.4
##  3 Algeria Africa      43.1   45.7   48.3   51.4   54.5   58.0   61.4
##  4 Angola  Africa      30.0   32.0   34     36.0   37.9   39.5   39.9
##  5 Argent~ Americas    62.5   64.4   65.1   65.6   67.1   68.5   69.9
##  6 Austra~ Oceania     69.1   70.3   70.9   71.1   71.9   73.5   74.7
##  7 Austria Europe      66.8   67.5   69.5   70.1   70.6   72.2   73.2
##  8 Bahrain Asia        50.9   53.8   56.9   59.9   63.3   65.6   69.1
##  9 Bangla~ Asia        37.5   39.3   41.2   43.5   45.3   46.9   50.0
## 10 Belgium Europe      68     69.2   70.2   70.9   71.4   72.8   73.9
## # ... with 274 more rows, and 5 more variables: `1987` <dbl>,
## #   `1992` <dbl>, `1997` <dbl>, `2002` <dbl>, `2007` <dbl>
…
